[gd_scene load_steps=2 format=3 uid="uid://bn20k2waitafe"]

[ext_resource type="Script" path="res://car/mobile/mobile.gd" id="1_ggm3a"]

[node name="mobile" type="Control"]
layout_mode = 3
anchors_preset = 0
script = ExtResource("1_ggm3a")

[node name="steering" type="Control" parent="."]
layout_mode = 3
anchors_preset = 0

[node name="left" type="TouchScreenButton" parent="steering"]

[node name="right" type="TouchScreenButton" parent="steering"]

[node name="speed" type="Control" parent="."]
layout_mode = 3
anchors_preset = 0

[node name="gas" type="TouchScreenButton" parent="speed"]

[node name="brake" type="TouchScreenButton" parent="speed"]
