[gd_scene load_steps=21 format=3 uid="uid://dj38na8ws0yup"]

[ext_resource type="Script" path="res://car/mobile/mobile.gd" id="1_rhr80"]
[ext_resource type="Texture2D" uid="uid://c7yhaucxuqx2u" path="res://assets/ui/35.png" id="5_0ninr"]
[ext_resource type="Texture2D" uid="uid://bdv7g51ij02n" path="res://assets/ui/34.png" id="5_3trmr"]
[ext_resource type="Script" path="res://settings/settings.gd" id="5_5nks7"]
[ext_resource type="Script" path="res://demo/demo.gd" id="6_m4clf"]
[ext_resource type="AudioStream" uid="uid://c15wpxymd7fcv" path="res://assets/music/ArcLight.ogg" id="7_ivrd2"]
[ext_resource type="Theme" uid="uid://lkj1hydqo8p7" path="res://default.tres" id="8_x041i"]
[ext_resource type="Texture2D" uid="uid://cgpoifu4j3irs" path="res://assets/ui/32.png" id="9_uia4w"]
[ext_resource type="Theme" path="res://lobby.tres" id="15_0f5jq"]

[sub_resource type="StyleBoxFlat" id="StyleBoxFlat_747un"]
bg_color = Color(0.0627451, 0.0627451, 0.0627451, 0.85098)
border_width_left = 2
border_width_top = 2
border_width_right = 2
border_width_bottom = 2
border_color = Color(0.0627451, 0.0627451, 0.0627451, 0.827451)
corner_detail = 1
shadow_color = Color(0, 0, 0, 0)
anti_aliasing = false

[sub_resource type="StyleBoxFlat" id="StyleBoxFlat_abhys"]
bg_color = Color(0.0627451, 0.0627451, 0.0627451, 0.313726)
border_width_left = 1
border_width_top = 1
border_width_right = 1
border_width_bottom = 1
border_color = Color(0.0627451, 0.0627451, 0.0627451, 0.54902)
corner_detail = 1

[sub_resource type="StyleBoxFlat" id="StyleBoxFlat_u12fm"]
bg_color = Color(0.0627451, 0.0627451, 0.0627451, 0.313726)
border_color = Color(0.0627451, 0.0627451, 0.0627451, 0.54902)

[sub_resource type="StyleBoxFlat" id="StyleBoxFlat_txh84"]
bg_color = Color(0.0627451, 0.0627451, 0.0627451, 0.85098)
border_color = Color(0.0627451, 0.0627451, 0.0627451, 0.827451)
corner_detail = 1
shadow_color = Color(0, 0, 0, 0)

[sub_resource type="Image" id="Image_3kue1"]
data = {
"data": PackedByteArray(64, 62, 72, 255, 64, 62, 72, 255, 64, 62, 72, 255, 64, 62, 72, 255, 64, 62, 72, 255, 64, 62, 72, 255, 64, 62, 72, 255, 64, 62, 72, 255, 64, 62, 72, 255, 64, 62, 72, 255, 64, 62, 72, 255, 64, 62, 72, 255, 64, 62, 72, 255, 64, 62, 72, 255, 64, 62, 72, 255, 64, 62, 72, 255, 64, 62, 72, 255, 64, 62, 72, 255, 64, 62, 72, 255, 64, 62, 72, 255, 64, 62, 72, 255, 64, 62, 72, 255, 64, 62, 72, 255, 64, 62, 72, 255, 64, 62, 72, 255, 64, 62, 72, 255, 64, 62, 72, 255, 64, 62, 72, 255, 64, 62, 72, 255, 64, 62, 72, 255, 64, 62, 72, 255, 64, 62, 72, 255, 64, 62, 72, 255, 64, 62, 72, 255, 64, 62, 72, 255, 64, 62, 72, 255, 64, 62, 72, 255, 64, 62, 72, 255, 64, 62, 72, 255, 64, 62, 72, 255, 64, 62, 72, 255, 64, 62, 72, 255, 64, 62, 72, 255, 64, 62, 72, 255, 64, 62, 72, 255, 64, 62, 72, 255, 64, 62, 72, 255, 64, 62, 72, 255, 64, 62, 72, 255, 64, 62, 72, 255, 64, 62, 72, 255, 64, 62, 72, 255, 64, 62, 72, 255, 64, 62, 72, 255, 64, 62, 72, 255, 64, 62, 72, 255, 64, 62, 72, 255, 64, 62, 72, 255, 64, 62, 72, 255, 64, 62, 72, 255, 64, 62, 72, 255, 64, 62, 72, 255, 64, 62, 72, 255, 64, 62, 72, 255, 64, 62, 72, 255, 64, 62, 72, 255, 64, 62, 72, 255, 64, 62, 72, 255, 64, 62, 72, 255, 64, 62, 72, 255, 64, 62, 72, 255, 64, 62, 72, 255, 64, 62, 72, 255, 64, 62, 72, 255, 64, 62, 72, 255, 64, 62, 72, 255, 64, 62, 72, 255, 64, 62, 72, 255, 64, 62, 72, 255, 64, 62, 72, 255, 64, 62, 72, 255, 64, 62, 72, 255, 64, 62, 72, 255, 64, 62, 72, 255, 64, 62, 72, 255, 64, 62, 72, 255, 64, 62, 72, 255, 64, 62, 72, 255, 64, 62, 72, 255, 64, 62, 72, 255, 64, 62, 72, 255, 64, 62, 72, 255, 64, 62, 72, 255, 64, 62, 72, 255, 64, 62, 72, 255, 64, 62, 72, 255, 64, 62, 72, 255, 64, 62, 72, 255, 64, 62, 72, 255, 64, 62, 72, 255, 64, 62, 72, 255, 64, 62, 72, 255, 64, 62, 72, 255, 64, 62, 72, 255, 64, 62, 72, 255, 64, 62, 72, 255, 64, 62, 72, 255, 64, 62, 72, 255, 64, 62, 72, 255, 64, 62, 72, 255, 64, 61, 72, 255, 64, 61, 72, 255, 64, 61, 72, 255, 64, 61, 72, 255, 64, 61, 72, 255, 64, 61, 72, 255, 64, 61, 72, 255, 64, 61, 72, 255, 64, 61, 72, 255, 64, 61, 72, 255, 64, 61, 72, 255, 64, 61, 72, 255, 64, 61, 72, 255, 64, 61, 72, 255, 64, 61, 72, 255, 64, 61, 72, 255, 64, 61, 72, 255, 64, 61, 72, 255, 64, 61, 72, 255, 64, 61, 72, 255, 64, 61, 72, 255, 64, 61, 72, 255, 63, 61, 72, 255, 63, 61, 72, 255, 63, 61, 72, 255, 63, 61, 72, 255, 63, 61, 72, 255, 63, 61, 72, 255, 63, 61, 72, 255, 63, 61, 72, 255, 63, 61, 72, 255, 63, 61, 72, 255, 63, 61, 72, 255, 63, 61, 72, 255, 63, 61, 72, 255, 63, 61, 72, 255, 63, 61, 72, 255, 63, 61, 72, 255, 63, 61, 72, 255, 63, 61, 72, 255, 63, 61, 72, 255, 63, 61, 72, 255, 63, 61, 72, 255, 63, 61, 72, 255, 63, 61, 71, 255, 63, 61, 71, 255, 63, 61, 71, 255, 63, 61, 71, 255, 63, 61, 71, 255, 63, 61, 71, 255, 63, 61, 71, 255, 63, 61, 71, 255, 63, 61, 71, 255, 63, 61, 71, 255, 63, 61, 71, 255, 63, 61, 71, 255, 63, 61, 71, 255, 63, 61, 71, 255, 63, 61, 71, 255, 63, 61, 71, 255, 63, 61, 71, 255, 63, 61, 71, 255, 63, 61, 71, 255, 63, 61, 71, 255, 63, 61, 71, 255, 63, 61, 71, 255, 63, 60, 71, 255, 63, 60, 71, 255, 63, 60, 71, 255, 63, 60, 71, 255, 63, 60, 71, 255, 63, 60, 71, 255, 63, 60, 71, 255, 63, 60, 71, 255, 63, 60, 71, 255, 63, 60, 71, 255, 63, 60, 71, 255, 63, 60, 71, 255, 63, 60, 71, 255, 63, 60, 71, 255, 63, 60, 71, 255, 63, 60, 71, 255, 63, 60, 71, 255, 63, 60, 71, 255, 63, 60, 71, 255, 63, 60, 71, 255, 63, 60, 71, 255, 63, 60, 71, 255, 62, 60, 70, 255, 62, 60, 70, 255, 62, 60, 70, 255, 62, 60, 70, 255, 62, 60, 70, 255, 62, 60, 70, 255, 62, 60, 70, 255, 62, 60, 70, 255, 62, 60, 70, 255, 62, 60, 70, 255, 62, 60, 70, 255, 62, 60, 70, 255, 62, 60, 70, 255, 62, 60, 70, 255, 62, 60, 70, 255, 62, 60, 70, 255, 62, 60, 70, 255, 62, 60, 70, 255, 62, 60, 70, 255, 62, 60, 70, 255, 62, 60, 70, 255, 62, 60, 70, 255, 62, 60, 70, 255, 62, 60, 70, 255, 62, 60, 70, 255, 62, 60, 70, 255, 62, 60, 70, 255, 62, 60, 70, 255, 62, 60, 70, 255, 62, 60, 70, 255, 62, 60, 70, 255, 62, 60, 70, 255, 62, 60, 70, 255, 62, 60, 70, 255, 62, 60, 70, 255, 62, 60, 70, 255, 62, 60, 70, 255, 62, 60, 70, 255, 62, 60, 70, 255, 62, 60, 70, 255, 62, 60, 70, 255, 62, 60, 70, 255, 62, 60, 70, 255, 62, 60, 70, 255, 61, 59, 70, 255, 61, 59, 70, 255, 61, 59, 70, 255, 61, 59, 70, 255, 61, 59, 70, 255, 61, 59, 70, 255, 61, 59, 70, 255, 61, 59, 70, 255, 61, 59, 70, 255, 61, 59, 70, 255, 61, 59, 70, 255, 61, 59, 70, 255, 61, 59, 70, 255, 61, 59, 70, 255, 61, 59, 70, 255, 61, 59, 70, 255, 61, 59, 70, 255, 61, 59, 70, 255, 61, 59, 70, 255, 61, 59, 70, 255, 61, 59, 70, 255, 61, 59, 70, 255, 61, 59, 69, 255, 61, 59, 69, 255, 61, 59, 69, 255, 61, 59, 69, 255, 61, 59, 69, 255, 61, 59, 69, 255, 61, 59, 69, 255, 61, 59, 69, 255, 61, 59, 69, 255, 61, 59, 69, 255, 61, 59, 69, 255, 61, 59, 69, 255, 61, 59, 69, 255, 61, 59, 69, 255, 61, 59, 69, 255, 61, 59, 69, 255, 61, 59, 69, 255, 61, 59, 69, 255, 61, 59, 69, 255, 61, 59, 69, 255, 61, 59, 69, 255, 61, 59, 69, 255, 61, 58, 69, 255, 61, 58, 69, 255, 61, 58, 69, 255, 61, 58, 69, 255, 61, 58, 69, 255, 61, 58, 69, 255, 61, 58, 69, 255, 61, 58, 69, 255, 61, 58, 69, 255, 61, 58, 69, 255, 61, 58, 69, 255, 61, 58, 69, 255, 61, 58, 69, 255, 61, 58, 69, 255, 61, 58, 69, 255, 61, 58, 69, 255, 61, 58, 69, 255, 61, 58, 69, 255, 61, 58, 69, 255, 61, 58, 69, 255, 61, 58, 69, 255, 61, 58, 69, 255, 60, 58, 68, 255, 60, 58, 68, 255, 60, 58, 68, 255, 60, 58, 68, 255, 60, 58, 68, 255, 60, 58, 68, 255, 60, 58, 68, 255, 60, 58, 68, 255, 60, 58, 68, 255, 60, 58, 68, 255, 60, 58, 68, 255, 60, 58, 68, 255, 60, 58, 68, 255, 60, 58, 68, 255, 60, 58, 68, 255, 60, 58, 68, 255, 60, 58, 68, 255, 60, 58, 68, 255, 60, 58, 68, 255, 60, 58, 68, 255, 60, 58, 68, 255, 60, 58, 68, 255, 60, 58, 68, 255, 60, 58, 68, 255, 60, 58, 68, 255, 60, 58, 68, 255, 60, 58, 68, 255, 60, 58, 68, 255, 60, 58, 68, 255, 60, 58, 68, 255, 60, 58, 68, 255, 60, 58, 68, 255, 60, 58, 68, 255, 60, 58, 68, 255, 60, 58, 68, 255, 60, 58, 68, 255, 60, 58, 68, 255, 60, 58, 68, 255, 60, 58, 68, 255, 60, 58, 68, 255, 60, 58, 68, 255, 60, 58, 68, 255, 60, 58, 68, 255, 60, 58, 68, 255, 59, 57, 67, 255, 59, 57, 67, 255, 59, 57, 67, 255, 59, 57, 67, 255, 59, 57, 67, 255, 59, 57, 67, 255, 59, 57, 67, 255, 59, 57, 67, 255, 59, 57, 67, 255, 59, 57, 67, 255, 59, 57, 67, 255, 59, 57, 67, 255, 59, 57, 67, 255, 59, 57, 67, 255, 59, 57, 67, 255, 59, 57, 67, 255, 59, 57, 67, 255, 59, 57, 67, 255, 59, 57, 67, 255, 59, 57, 67, 255, 59, 57, 67, 255, 59, 57, 67, 255, 59, 57, 67, 255, 59, 57, 67, 255, 59, 57, 67, 255, 59, 57, 67, 255, 59, 57, 67, 255, 59, 57, 67, 255, 59, 57, 67, 255, 59, 57, 67, 255, 59, 57, 67, 255, 59, 57, 67, 255, 59, 57, 67, 255, 59, 57, 67, 255, 59, 57, 67, 255, 59, 57, 67, 255, 59, 57, 67, 255, 59, 57, 67, 255, 59, 57, 67, 255, 59, 57, 67, 255, 59, 57, 67, 255, 59, 57, 67, 255, 59, 57, 67, 255, 59, 57, 67, 255, 58, 56, 66, 255, 58, 56, 66, 255, 58, 56, 66, 255, 58, 56, 66, 255, 58, 56, 66, 255, 58, 56, 66, 255, 58, 56, 66, 255, 58, 56, 66, 255, 58, 56, 66, 255, 58, 56, 66, 255, 58, 56, 66, 255, 58, 56, 66, 255, 58, 56, 66, 255, 58, 56, 66, 255, 58, 56, 66, 255, 58, 56, 66, 255, 58, 56, 66, 255, 58, 56, 66, 255, 58, 56, 66, 255, 58, 56, 66, 255, 58, 56, 66, 255, 58, 56, 66, 255, 58, 56, 66, 255, 58, 56, 66, 255, 58, 56, 66, 255, 58, 56, 66, 255, 58, 56, 66, 255, 58, 56, 66, 255, 58, 56, 66, 255, 58, 56, 66, 255, 58, 56, 66, 255, 58, 56, 66, 255, 58, 56, 66, 255, 58, 56, 66, 255, 58, 56, 66, 255, 58, 56, 66, 255, 58, 56, 66, 255, 58, 56, 66, 255, 58, 56, 66, 255, 58, 56, 66, 255, 58, 56, 66, 255, 58, 56, 66, 255, 58, 56, 66, 255, 58, 56, 66, 255, 58, 55, 65, 255, 58, 55, 65, 255, 58, 55, 65, 255, 58, 55, 65, 255, 58, 55, 65, 255, 58, 55, 65, 255, 58, 55, 65, 255, 58, 55, 65, 255, 58, 55, 65, 255, 58, 55, 65, 255, 58, 55, 65, 255, 58, 55, 65, 255, 58, 55, 65, 255, 58, 55, 65, 255, 58, 55, 65, 255, 58, 55, 65, 255, 58, 55, 65, 255, 58, 55, 65, 255, 58, 55, 65, 255, 58, 55, 65, 255, 58, 55, 65, 255, 58, 55, 65, 255, 57, 55, 65, 255, 57, 55, 65, 255, 57, 55, 65, 255, 57, 55, 65, 255, 57, 55, 65, 255, 57, 55, 65, 255, 57, 55, 65, 255, 57, 55, 65, 255, 57, 55, 65, 255, 57, 55, 65, 255, 57, 55, 65, 255, 57, 55, 65, 255, 57, 55, 65, 255, 57, 55, 65, 255, 57, 55, 65, 255, 57, 55, 65, 255, 57, 55, 65, 255, 57, 55, 65, 255, 57, 55, 65, 255, 57, 55, 65, 255, 57, 55, 65, 255, 57, 55, 65, 255, 57, 55, 64, 255, 57, 55, 64, 255, 57, 55, 64, 255, 57, 55, 64, 255, 57, 55, 64, 255, 57, 55, 64, 255, 57, 55, 64, 255, 57, 55, 64, 255, 57, 55, 64, 255, 57, 55, 64, 255, 57, 55, 64, 255, 57, 55, 64, 255, 57, 55, 64, 255, 57, 55, 64, 255, 57, 55, 64, 255, 57, 55, 64, 255, 57, 55, 64, 255, 57, 55, 64, 255, 57, 55, 64, 255, 57, 55, 64, 255, 57, 55, 64, 255, 57, 55, 64, 255, 56, 54, 64, 255, 56, 54, 64, 255, 56, 54, 64, 255, 56, 54, 64, 255, 56, 54, 64, 255, 56, 54, 64, 255, 56, 54, 64, 255, 56, 54, 64, 255, 56, 54, 64, 255, 56, 54, 64, 255, 56, 54, 64, 255, 56, 54, 64, 255, 56, 54, 64, 255, 56, 54, 64, 255, 56, 54, 64, 255, 56, 54, 64, 255, 56, 54, 64, 255, 56, 54, 64, 255, 56, 54, 64, 255, 56, 54, 64, 255, 56, 54, 64, 255, 56, 54, 64, 255, 56, 54, 63, 255, 56, 54, 63, 255, 56, 54, 63, 255, 56, 54, 63, 255, 56, 54, 63, 255, 56, 54, 63, 255, 56, 54, 63, 255, 56, 54, 63, 255, 56, 54, 63, 255, 56, 54, 63, 255, 56, 54, 63, 255, 56, 54, 63, 255, 56, 54, 63, 255, 56, 54, 63, 255, 56, 54, 63, 255, 56, 54, 63, 255, 56, 54, 63, 255, 56, 54, 63, 255, 56, 54, 63, 255, 56, 54, 63, 255, 56, 54, 63, 255, 56, 54, 63, 255, 56, 53, 63, 255, 56, 53, 63, 255, 56, 53, 63, 255, 56, 53, 63, 255, 56, 53, 63, 255, 56, 53, 63, 255, 56, 53, 63, 255, 56, 53, 63, 255, 56, 53, 63, 255, 56, 53, 63, 255, 56, 53, 63, 255, 56, 53, 63, 255, 56, 53, 63, 255, 56, 53, 63, 255, 56, 53, 63, 255, 56, 53, 63, 255, 56, 53, 63, 255, 56, 53, 63, 255, 56, 53, 63, 255, 56, 53, 63, 255, 56, 53, 63, 255, 56, 53, 63, 255, 55, 53, 62, 255, 55, 53, 62, 255, 55, 53, 62, 255, 55, 53, 62, 255, 55, 53, 62, 255, 55, 53, 62, 255, 55, 53, 62, 255, 55, 53, 62, 255, 55, 53, 62, 255, 55, 53, 62, 255, 55, 53, 62, 255, 55, 53, 62, 255, 55, 53, 62, 255, 55, 53, 62, 255, 55, 53, 62, 255, 55, 53, 62, 255, 55, 53, 62, 255, 55, 53, 62, 255, 55, 53, 62, 255, 55, 53, 62, 255, 55, 53, 62, 255, 55, 53, 62, 255, 55, 53, 62, 255, 55, 53, 62, 255, 55, 53, 62, 255, 55, 53, 62, 255, 55, 53, 62, 255, 55, 53, 62, 255, 55, 53, 62, 255, 55, 53, 62, 255, 55, 53, 62, 255, 55, 53, 62, 255, 55, 53, 62, 255, 55, 53, 62, 255, 55, 53, 62, 255, 55, 53, 62, 255, 55, 53, 62, 255, 55, 53, 62, 255, 55, 53, 62, 255, 55, 53, 62, 255, 55, 53, 62, 255, 55, 53, 62, 255, 55, 53, 62, 255, 55, 53, 62, 255, 55, 52, 62, 255, 55, 52, 62, 255, 55, 52, 62, 255, 55, 52, 62, 255, 55, 52, 62, 255, 55, 52, 62, 255, 55, 52, 62, 255, 55, 52, 62, 255, 55, 52, 62, 255, 55, 52, 62, 255, 55, 52, 62, 255, 55, 52, 62, 255, 55, 52, 62, 255, 55, 52, 62, 255, 55, 52, 62, 255, 55, 52, 62, 255, 55, 52, 62, 255, 55, 52, 62, 255, 55, 52, 62, 255, 55, 52, 62, 255, 55, 52, 62, 255, 55, 52, 62, 255, 54, 52, 61, 255, 54, 52, 61, 255, 54, 52, 61, 255, 54, 52, 61, 255, 54, 52, 61, 255, 54, 52, 61, 255, 54, 52, 61, 255, 54, 52, 61, 255, 54, 52, 61, 255, 54, 52, 61, 255, 54, 52, 61, 255, 54, 52, 61, 255, 54, 52, 61, 255, 54, 52, 61, 255, 54, 52, 61, 255, 54, 52, 61, 255, 54, 52, 61, 255, 54, 52, 61, 255, 54, 52, 61, 255, 54, 52, 61, 255, 54, 52, 61, 255, 54, 52, 61, 255, 54, 52, 61, 255, 54, 52, 61, 255, 54, 52, 61, 255, 54, 52, 61, 255, 54, 52, 61, 255, 54, 52, 61, 255, 54, 52, 61, 255, 54, 52, 61, 255, 54, 52, 61, 255, 54, 52, 61, 255, 54, 52, 61, 255, 54, 52, 61, 255, 54, 52, 61, 255, 54, 52, 61, 255, 54, 52, 61, 255, 54, 52, 61, 255, 54, 52, 61, 255, 54, 52, 61, 255, 54, 52, 61, 255, 54, 52, 61, 255, 54, 52, 61, 255, 54, 52, 61, 255, 54, 52, 61, 255, 54, 52, 61, 255, 54, 52, 61, 255, 54, 52, 61, 255, 54, 52, 61, 255, 54, 52, 61, 255, 54, 52, 61, 255, 54, 52, 61, 255, 54, 52, 61, 255, 54, 52, 61, 255, 54, 52, 61, 255, 54, 52, 61, 255, 54, 52, 61, 255, 54, 52, 61, 255, 54, 52, 61, 255, 54, 52, 61, 255, 54, 52, 61, 255, 54, 52, 61, 255, 54, 52, 61, 255, 54, 52, 61, 255, 54, 52, 61, 255, 54, 52, 61, 255, 53, 51, 60, 255, 53, 51, 60, 255, 53, 51, 60, 255, 53, 51, 60, 255, 53, 51, 60, 255, 53, 51, 60, 255, 53, 51, 60, 255, 53, 51, 60, 255, 53, 51, 60, 255, 53, 51, 60, 255, 53, 51, 60, 255, 53, 51, 60, 255, 53, 51, 60, 255, 53, 51, 60, 255, 53, 51, 60, 255, 53, 51, 60, 255, 53, 51, 60, 255, 53, 51, 60, 255, 53, 51, 60, 255, 53, 51, 60, 255, 53, 51, 60, 255, 53, 51, 60, 255, 53, 51, 60, 255, 53, 51, 60, 255, 53, 51, 60, 255, 53, 51, 60, 255, 53, 51, 60, 255, 53, 51, 60, 255, 53, 51, 60, 255, 53, 51, 60, 255, 53, 51, 60, 255, 53, 51, 60, 255, 53, 51, 60, 255, 53, 51, 60, 255, 53, 51, 60, 255, 53, 51, 60, 255, 53, 51, 60, 255, 53, 51, 60, 255, 53, 51, 60, 255, 53, 51, 60, 255, 53, 51, 60, 255, 53, 51, 60, 255, 53, 51, 60, 255, 53, 51, 60, 255, 53, 51, 60, 255, 53, 51, 60, 255, 53, 51, 60, 255, 53, 51, 60, 255, 53, 51, 60, 255, 53, 51, 60, 255, 53, 51, 60, 255, 53, 51, 60, 255, 53, 51, 60, 255, 53, 51, 60, 255, 53, 51, 60, 255, 53, 51, 60, 255, 53, 51, 60, 255, 53, 51, 60, 255, 53, 51, 60, 255, 53, 51, 60, 255, 53, 51, 60, 255, 53, 51, 60, 255, 53, 51, 60, 255, 53, 51, 60, 255, 53, 51, 60, 255, 53, 51, 60, 255, 53, 51, 60, 255, 53, 51, 60, 255, 53, 51, 60, 255, 53, 51, 60, 255, 53, 51, 60, 255, 53, 51, 60, 255, 53, 51, 60, 255, 53, 51, 60, 255, 53, 51, 60, 255, 53, 51, 60, 255, 53, 51, 60, 255, 53, 51, 60, 255, 53, 51, 60, 255, 53, 51, 60, 255, 53, 51, 60, 255, 53, 51, 60, 255, 53, 51, 60, 255, 53, 51, 60, 255, 53, 51, 60, 255, 53, 51, 60, 255, 53, 51, 60, 255, 53, 51, 60, 255, 53, 51, 60, 255, 53, 51, 60, 255, 53, 51, 60, 255, 53, 51, 60, 255, 53, 51, 60, 255, 53, 51, 60, 255, 53, 51, 60, 255, 53, 51, 60, 255, 53, 51, 60, 255, 53, 51, 60, 255, 53, 51, 60, 255, 53, 51, 60, 255, 53, 51, 60, 255, 53, 51, 60, 255, 53, 51, 60, 255, 53, 51, 60, 255, 53, 51, 60, 255, 53, 51, 60, 255, 53, 51, 60, 255, 53, 51, 60, 255, 53, 51, 60, 255, 53, 51, 60, 255, 53, 51, 60, 255, 53, 51, 60, 255, 53, 51, 60, 255, 53, 51, 60, 255, 53, 51, 60, 255, 53, 51, 60, 255, 53, 51, 60, 255, 53, 51, 60, 255, 53, 51, 60, 255, 53, 51, 60, 255, 53, 51, 60, 255, 53, 51, 60, 255, 53, 51, 60, 255, 53, 51, 60, 255, 53, 51, 60, 255, 53, 51, 60, 255, 53, 51, 60, 255, 53, 51, 60, 255, 53, 51, 60, 255, 53, 51, 60, 255, 53, 51, 60, 255, 53, 51, 60, 255),
"format": "RGBA8",
"height": 38,
"mipmaps": false,
"width": 22
}

[sub_resource type="ImageTexture" id="ImageTexture_8oaxc"]
image = SubResource("Image_3kue1")

[sub_resource type="StyleBoxTexture" id="StyleBoxTexture_4ubab"]
texture = SubResource("ImageTexture_8oaxc")
region_rect = Rect2(0, 0, 22, 38)

[sub_resource type="Image" id="Image_yrtuh"]
data = {
"data": PackedByteArray(64, 62, 72, 255, 64, 62, 72, 255, 64, 62, 72, 255, 64, 62, 72, 255, 64, 62, 72, 255, 64, 62, 72, 255, 64, 62, 72, 255, 64, 62, 72, 255, 64, 62, 72, 255, 64, 62, 72, 255, 64, 62, 72, 255, 64, 62, 72, 255, 64, 62, 72, 255, 64, 62, 72, 255, 64, 62, 72, 255, 64, 62, 72, 255, 64, 62, 72, 255, 64, 62, 72, 255, 64, 62, 72, 255, 64, 62, 72, 255, 64, 62, 72, 255, 64, 62, 72, 255, 64, 62, 72, 255, 64, 62, 72, 255, 64, 62, 72, 255, 64, 62, 72, 255, 64, 62, 72, 255, 64, 62, 72, 255, 64, 62, 72, 255, 64, 62, 72, 255, 64, 62, 72, 255, 64, 62, 72, 255, 64, 62, 72, 255, 64, 62, 72, 255, 64, 62, 72, 255, 64, 62, 72, 255, 64, 62, 72, 255, 64, 62, 72, 255, 64, 62, 72, 255, 64, 62, 72, 255, 64, 62, 72, 255, 64, 62, 72, 255, 64, 62, 72, 255, 64, 62, 72, 255, 64, 62, 72, 255, 64, 62, 72, 255, 64, 62, 72, 255, 64, 62, 72, 255, 64, 62, 72, 255, 64, 62, 72, 255, 64, 62, 72, 255, 64, 62, 72, 255, 64, 62, 72, 255, 64, 62, 72, 255, 64, 62, 72, 255, 64, 62, 72, 255, 64, 62, 72, 255, 64, 62, 72, 255, 64, 62, 72, 255, 64, 62, 72, 255, 64, 62, 72, 255, 64, 62, 72, 255, 64, 62, 72, 255, 64, 62, 72, 255, 64, 62, 72, 255, 64, 62, 72, 255, 64, 62, 72, 255, 64, 62, 72, 255, 64, 62, 72, 255, 64, 62, 72, 255, 64, 62, 72, 255, 64, 62, 72, 255, 64, 62, 72, 255, 64, 62, 72, 255, 64, 62, 72, 255, 64, 62, 72, 255, 64, 62, 72, 255, 64, 62, 72, 255, 64, 62, 72, 255, 64, 62, 72, 255, 64, 62, 72, 255, 64, 62, 72, 255, 64, 62, 72, 255, 64, 62, 72, 255, 64, 62, 72, 255, 64, 62, 72, 255, 64, 62, 72, 255, 64, 62, 72, 255, 64, 62, 72, 255, 64, 62, 72, 255, 64, 62, 72, 255, 64, 62, 72, 255, 64, 62, 72, 255, 64, 62, 72, 255, 64, 62, 72, 255, 64, 62, 72, 255, 64, 62, 72, 255, 64, 62, 72, 255, 64, 62, 72, 255, 64, 62, 72, 255, 64, 62, 72, 255, 64, 62, 72, 255, 64, 62, 72, 255, 64, 62, 72, 255, 64, 62, 72, 255, 64, 62, 72, 255, 64, 62, 72, 255, 64, 62, 72, 255, 64, 62, 72, 255, 64, 62, 72, 255, 64, 61, 72, 255, 64, 61, 72, 255, 64, 61, 72, 255, 64, 61, 72, 255, 64, 61, 72, 255, 64, 61, 72, 255, 64, 61, 72, 255, 64, 61, 72, 255, 64, 61, 72, 255, 64, 61, 72, 255, 64, 61, 72, 255, 64, 61, 72, 255, 64, 61, 72, 255, 64, 61, 72, 255, 64, 61, 72, 255, 64, 61, 72, 255, 64, 61, 72, 255, 64, 61, 72, 255, 64, 61, 72, 255, 64, 61, 72, 255, 64, 61, 72, 255, 64, 61, 72, 255, 63, 61, 72, 255, 63, 61, 72, 255, 63, 61, 72, 255, 63, 61, 72, 255, 63, 61, 72, 255, 63, 61, 72, 255, 63, 61, 72, 255, 63, 61, 72, 255, 63, 61, 72, 255, 63, 61, 72, 255, 63, 61, 72, 255, 63, 61, 72, 255, 63, 61, 72, 255, 63, 61, 72, 255, 63, 61, 72, 255, 63, 61, 72, 255, 63, 61, 72, 255, 63, 61, 72, 255, 63, 61, 72, 255, 63, 61, 72, 255, 63, 61, 72, 255, 63, 61, 72, 255, 63, 61, 71, 255, 63, 61, 71, 255, 63, 61, 71, 255, 63, 61, 71, 255, 63, 61, 71, 255, 63, 61, 71, 255, 63, 61, 71, 255, 63, 61, 71, 255, 63, 61, 71, 255, 63, 61, 71, 255, 63, 61, 71, 255, 63, 61, 71, 255, 63, 61, 71, 255, 63, 61, 71, 255, 63, 61, 71, 255, 63, 61, 71, 255, 63, 61, 71, 255, 63, 61, 71, 255, 63, 61, 71, 255, 63, 61, 71, 255, 63, 61, 71, 255, 63, 61, 71, 255, 63, 60, 71, 255, 63, 60, 71, 255, 63, 60, 71, 255, 63, 60, 71, 255, 63, 60, 71, 255, 63, 60, 71, 255, 63, 60, 71, 255, 63, 60, 71, 255, 63, 60, 71, 255, 63, 60, 71, 255, 63, 60, 71, 255, 63, 60, 71, 255, 63, 60, 71, 255, 63, 60, 71, 255, 63, 60, 71, 255, 63, 60, 71, 255, 63, 60, 71, 255, 63, 60, 71, 255, 63, 60, 71, 255, 63, 60, 71, 255, 63, 60, 71, 255, 63, 60, 71, 255, 62, 60, 70, 255, 62, 60, 70, 255, 62, 60, 70, 255, 62, 60, 70, 255, 62, 60, 70, 255, 62, 60, 70, 255, 62, 60, 70, 255, 62, 60, 70, 255, 62, 60, 70, 255, 62, 60, 70, 255, 62, 60, 70, 255, 62, 60, 70, 255, 62, 60, 70, 255, 62, 60, 70, 255, 62, 60, 70, 255, 62, 60, 70, 255, 62, 60, 70, 255, 62, 60, 70, 255, 62, 60, 70, 255, 62, 60, 70, 255, 62, 60, 70, 255, 62, 60, 70, 255, 62, 60, 70, 255, 62, 60, 70, 255, 62, 60, 70, 255, 62, 60, 70, 255, 62, 60, 70, 255, 62, 60, 70, 255, 62, 60, 70, 255, 62, 60, 70, 255, 62, 60, 70, 255, 62, 60, 70, 255, 62, 60, 70, 255, 62, 60, 70, 255, 62, 60, 70, 255, 62, 60, 70, 255, 62, 60, 70, 255, 62, 60, 70, 255, 62, 60, 70, 255, 62, 60, 70, 255, 62, 60, 70, 255, 62, 60, 70, 255, 62, 60, 70, 255, 62, 60, 70, 255, 61, 59, 70, 255, 61, 59, 70, 255, 61, 59, 70, 255, 61, 59, 70, 255, 61, 59, 70, 255, 61, 59, 70, 255, 61, 59, 70, 255, 61, 59, 70, 255, 61, 59, 70, 255, 61, 59, 70, 255, 61, 59, 70, 255, 61, 59, 70, 255, 61, 59, 70, 255, 61, 59, 70, 255, 61, 59, 70, 255, 61, 59, 70, 255, 61, 59, 70, 255, 61, 59, 70, 255, 61, 59, 70, 255, 61, 59, 70, 255, 61, 59, 70, 255, 61, 59, 70, 255, 61, 59, 69, 255, 61, 59, 69, 255, 61, 59, 69, 255, 61, 59, 69, 255, 61, 59, 69, 255, 61, 59, 69, 255, 61, 59, 69, 255, 61, 59, 69, 255, 61, 59, 69, 255, 61, 59, 69, 255, 61, 59, 69, 255, 61, 59, 69, 255, 61, 59, 69, 255, 61, 59, 69, 255, 61, 59, 69, 255, 61, 59, 69, 255, 61, 59, 69, 255, 61, 59, 69, 255, 61, 59, 69, 255, 61, 59, 69, 255, 61, 59, 69, 255, 61, 59, 69, 255, 61, 58, 69, 255, 61, 58, 69, 255, 61, 58, 69, 255, 61, 58, 69, 255, 61, 58, 69, 255, 61, 58, 69, 255, 61, 58, 69, 255, 61, 58, 69, 255, 61, 58, 69, 255, 61, 58, 69, 255, 61, 58, 69, 255, 61, 58, 69, 255, 61, 58, 69, 255, 61, 58, 69, 255, 61, 58, 69, 255, 61, 58, 69, 255, 61, 58, 69, 255, 61, 58, 69, 255, 61, 58, 69, 255, 61, 58, 69, 255, 61, 58, 69, 255, 61, 58, 69, 255, 60, 58, 68, 255, 60, 58, 68, 255, 60, 58, 68, 255, 60, 58, 68, 255, 60, 58, 68, 255, 60, 58, 68, 255, 60, 58, 68, 255, 60, 58, 68, 255, 60, 58, 68, 255, 60, 58, 68, 255, 60, 58, 68, 255, 60, 58, 68, 255, 60, 58, 68, 255, 60, 58, 68, 255, 60, 58, 68, 255, 60, 58, 68, 255, 60, 58, 68, 255, 60, 58, 68, 255, 60, 58, 68, 255, 60, 58, 68, 255, 60, 58, 68, 255, 60, 58, 68, 255, 60, 58, 68, 255, 60, 58, 68, 255, 60, 58, 68, 255, 60, 58, 68, 255, 60, 58, 68, 255, 60, 58, 68, 255, 60, 58, 68, 255, 60, 58, 68, 255, 60, 58, 68, 255, 60, 58, 68, 255, 60, 58, 68, 255, 60, 58, 68, 255, 60, 58, 68, 255, 60, 58, 68, 255, 60, 58, 68, 255, 60, 58, 68, 255, 60, 58, 68, 255, 60, 58, 68, 255, 60, 58, 68, 255, 60, 58, 68, 255, 60, 58, 68, 255, 60, 58, 68, 255, 59, 57, 67, 255, 59, 57, 67, 255, 59, 57, 67, 255, 59, 57, 67, 255, 59, 57, 67, 255, 59, 57, 67, 255, 59, 57, 67, 255, 59, 57, 67, 255, 59, 57, 67, 255, 59, 57, 67, 255, 59, 57, 67, 255, 59, 57, 67, 255, 59, 57, 67, 255, 59, 57, 67, 255, 59, 57, 67, 255, 59, 57, 67, 255, 59, 57, 67, 255, 59, 57, 67, 255, 59, 57, 67, 255, 59, 57, 67, 255, 59, 57, 67, 255, 59, 57, 67, 255, 59, 57, 67, 255, 59, 57, 67, 255, 59, 57, 67, 255, 59, 57, 67, 255, 59, 57, 67, 255, 59, 57, 67, 255, 59, 57, 67, 255, 59, 57, 67, 255, 59, 57, 67, 255, 59, 57, 67, 255, 59, 57, 67, 255, 59, 57, 67, 255, 59, 57, 67, 255, 59, 57, 67, 255, 59, 57, 67, 255, 59, 57, 67, 255, 59, 57, 67, 255, 59, 57, 67, 255, 59, 57, 67, 255, 59, 57, 67, 255, 59, 57, 67, 255, 59, 57, 67, 255, 58, 56, 66, 255, 58, 56, 66, 255, 58, 56, 66, 255, 58, 56, 66, 255, 58, 56, 66, 255, 58, 56, 66, 255, 58, 56, 66, 255, 58, 56, 66, 255, 58, 56, 66, 255, 58, 56, 66, 255, 58, 56, 66, 255, 58, 56, 66, 255, 58, 56, 66, 255, 58, 56, 66, 255, 58, 56, 66, 255, 58, 56, 66, 255, 58, 56, 66, 255, 58, 56, 66, 255, 58, 56, 66, 255, 58, 56, 66, 255, 58, 56, 66, 255, 58, 56, 66, 255, 58, 56, 66, 255, 58, 56, 66, 255, 58, 56, 66, 255, 58, 56, 66, 255, 58, 56, 66, 255, 58, 56, 66, 255, 58, 56, 66, 255, 58, 56, 66, 255, 58, 56, 66, 255, 58, 56, 66, 255, 58, 56, 66, 255, 58, 56, 66, 255, 58, 56, 66, 255, 58, 56, 66, 255, 58, 56, 66, 255, 58, 56, 66, 255, 58, 56, 66, 255, 58, 56, 66, 255, 58, 56, 66, 255, 58, 56, 66, 255, 58, 56, 66, 255, 58, 56, 66, 255, 58, 55, 65, 255, 58, 55, 65, 255, 58, 55, 65, 255, 58, 55, 65, 255, 58, 55, 65, 255, 58, 55, 65, 255, 58, 55, 65, 255, 58, 55, 65, 255, 58, 55, 65, 255, 58, 55, 65, 255, 58, 55, 65, 255, 58, 55, 65, 255, 58, 55, 65, 255, 58, 55, 65, 255, 58, 55, 65, 255, 58, 55, 65, 255, 58, 55, 65, 255, 58, 55, 65, 255, 58, 55, 65, 255, 58, 55, 65, 255, 58, 55, 65, 255, 58, 55, 65, 255, 57, 55, 65, 255, 57, 55, 65, 255, 57, 55, 65, 255, 57, 55, 65, 255, 57, 55, 65, 255, 57, 55, 65, 255, 57, 55, 65, 255, 57, 55, 65, 255, 57, 55, 65, 255, 57, 55, 65, 255, 57, 55, 65, 255, 57, 55, 65, 255, 57, 55, 65, 255, 57, 55, 65, 255, 57, 55, 65, 255, 57, 55, 65, 255, 57, 55, 65, 255, 57, 55, 65, 255, 57, 55, 65, 255, 57, 55, 65, 255, 57, 55, 65, 255, 57, 55, 65, 255, 57, 55, 64, 255, 57, 55, 64, 255, 57, 55, 64, 255, 57, 55, 64, 255, 57, 55, 64, 255, 57, 55, 64, 255, 57, 55, 64, 255, 57, 55, 64, 255, 57, 55, 64, 255, 57, 55, 64, 255, 57, 55, 64, 255, 57, 55, 64, 255, 57, 55, 64, 255, 57, 55, 64, 255, 57, 55, 64, 255, 57, 55, 64, 255, 57, 55, 64, 255, 57, 55, 64, 255, 57, 55, 64, 255, 57, 55, 64, 255, 57, 55, 64, 255, 57, 55, 64, 255, 56, 54, 64, 255, 56, 54, 64, 255, 56, 54, 64, 255, 56, 54, 64, 255, 56, 54, 64, 255, 56, 54, 64, 255, 56, 54, 64, 255, 56, 54, 64, 255, 56, 54, 64, 255, 56, 54, 64, 255, 56, 54, 64, 255, 56, 54, 64, 255, 56, 54, 64, 255, 56, 54, 64, 255, 56, 54, 64, 255, 56, 54, 64, 255, 56, 54, 64, 255, 56, 54, 64, 255, 56, 54, 64, 255, 56, 54, 64, 255, 56, 54, 64, 255, 56, 54, 64, 255, 56, 54, 63, 255, 56, 54, 63, 255, 56, 54, 63, 255, 56, 54, 63, 255, 56, 54, 63, 255, 56, 54, 63, 255, 56, 54, 63, 255, 56, 54, 63, 255, 56, 54, 63, 255, 56, 54, 63, 255, 56, 54, 63, 255, 56, 54, 63, 255, 56, 54, 63, 255, 56, 54, 63, 255, 56, 54, 63, 255, 56, 54, 63, 255, 56, 54, 63, 255, 56, 54, 63, 255, 56, 54, 63, 255, 56, 54, 63, 255, 56, 54, 63, 255, 56, 54, 63, 255, 56, 53, 63, 255, 56, 53, 63, 255, 56, 53, 63, 255, 56, 53, 63, 255, 56, 53, 63, 255, 56, 53, 63, 255, 56, 53, 63, 255, 56, 53, 63, 255, 56, 53, 63, 255, 56, 53, 63, 255, 56, 53, 63, 255, 56, 53, 63, 255, 56, 53, 63, 255, 56, 53, 63, 255, 56, 53, 63, 255, 56, 53, 63, 255, 56, 53, 63, 255, 56, 53, 63, 255, 56, 53, 63, 255, 56, 53, 63, 255, 56, 53, 63, 255, 56, 53, 63, 255, 55, 53, 62, 255, 55, 53, 62, 255, 55, 53, 62, 255, 55, 53, 62, 255, 55, 53, 62, 255, 55, 53, 62, 255, 55, 53, 62, 255, 55, 53, 62, 255, 55, 53, 62, 255, 55, 53, 62, 255, 55, 53, 62, 255, 55, 53, 62, 255, 55, 53, 62, 255, 55, 53, 62, 255, 55, 53, 62, 255, 55, 53, 62, 255, 55, 53, 62, 255, 55, 53, 62, 255, 55, 53, 62, 255, 55, 53, 62, 255, 55, 53, 62, 255, 55, 53, 62, 255, 55, 53, 62, 255, 55, 53, 62, 255, 55, 53, 62, 255, 55, 53, 62, 255, 55, 53, 62, 255, 55, 53, 62, 255, 55, 53, 62, 255, 55, 53, 62, 255, 55, 53, 62, 255, 55, 53, 62, 255, 55, 53, 62, 255, 55, 53, 62, 255, 55, 53, 62, 255, 55, 53, 62, 255, 55, 53, 62, 255, 55, 53, 62, 255, 55, 53, 62, 255, 55, 53, 62, 255, 55, 53, 62, 255, 55, 53, 62, 255, 55, 53, 62, 255, 55, 53, 62, 255, 55, 52, 62, 255, 55, 52, 62, 255, 55, 52, 62, 255, 55, 52, 62, 255, 55, 52, 62, 255, 55, 52, 62, 255, 55, 52, 62, 255, 55, 52, 62, 255, 55, 52, 62, 255, 55, 52, 62, 255, 55, 52, 62, 255, 55, 52, 62, 255, 55, 52, 62, 255, 55, 52, 62, 255, 55, 52, 62, 255, 55, 52, 62, 255, 55, 52, 62, 255, 55, 52, 62, 255, 55, 52, 62, 255, 55, 52, 62, 255, 55, 52, 62, 255, 55, 52, 62, 255, 54, 52, 61, 255, 54, 52, 61, 255, 54, 52, 61, 255, 54, 52, 61, 255, 54, 52, 61, 255, 54, 52, 61, 255, 54, 52, 61, 255, 54, 52, 61, 255, 54, 52, 61, 255, 54, 52, 61, 255, 54, 52, 61, 255, 54, 52, 61, 255, 54, 52, 61, 255, 54, 52, 61, 255, 54, 52, 61, 255, 54, 52, 61, 255, 54, 52, 61, 255, 54, 52, 61, 255, 54, 52, 61, 255, 54, 52, 61, 255, 54, 52, 61, 255, 54, 52, 61, 255, 54, 52, 61, 255, 54, 52, 61, 255, 54, 52, 61, 255, 54, 52, 61, 255, 54, 52, 61, 255, 54, 52, 61, 255, 54, 52, 61, 255, 54, 52, 61, 255, 54, 52, 61, 255, 54, 52, 61, 255, 54, 52, 61, 255, 54, 52, 61, 255, 54, 52, 61, 255, 54, 52, 61, 255, 54, 52, 61, 255, 54, 52, 61, 255, 54, 52, 61, 255, 54, 52, 61, 255, 54, 52, 61, 255, 54, 52, 61, 255, 54, 52, 61, 255, 54, 52, 61, 255, 54, 52, 61, 255, 54, 52, 61, 255, 54, 52, 61, 255, 54, 52, 61, 255, 54, 52, 61, 255, 54, 52, 61, 255, 54, 52, 61, 255, 54, 52, 61, 255, 54, 52, 61, 255, 54, 52, 61, 255, 54, 52, 61, 255, 54, 52, 61, 255, 54, 52, 61, 255, 54, 52, 61, 255, 54, 52, 61, 255, 54, 52, 61, 255, 54, 52, 61, 255, 54, 52, 61, 255, 54, 52, 61, 255, 54, 52, 61, 255, 54, 52, 61, 255, 54, 52, 61, 255, 53, 51, 60, 255, 53, 51, 60, 255, 53, 51, 60, 255, 53, 51, 60, 255, 53, 51, 60, 255, 53, 51, 60, 255, 53, 51, 60, 255, 53, 51, 60, 255, 53, 51, 60, 255, 53, 51, 60, 255, 53, 51, 60, 255, 53, 51, 60, 255, 53, 51, 60, 255, 53, 51, 60, 255, 53, 51, 60, 255, 53, 51, 60, 255, 53, 51, 60, 255, 53, 51, 60, 255, 53, 51, 60, 255, 53, 51, 60, 255, 53, 51, 60, 255, 53, 51, 60, 255, 53, 51, 60, 255, 53, 51, 60, 255, 53, 51, 60, 255, 53, 51, 60, 255, 53, 51, 60, 255, 53, 51, 60, 255, 53, 51, 60, 255, 53, 51, 60, 255, 53, 51, 60, 255, 53, 51, 60, 255, 53, 51, 60, 255, 53, 51, 60, 255, 53, 51, 60, 255, 53, 51, 60, 255, 53, 51, 60, 255, 53, 51, 60, 255, 53, 51, 60, 255, 53, 51, 60, 255, 53, 51, 60, 255, 53, 51, 60, 255, 53, 51, 60, 255, 53, 51, 60, 255, 53, 51, 60, 255, 53, 51, 60, 255, 53, 51, 60, 255, 53, 51, 60, 255, 53, 51, 60, 255, 53, 51, 60, 255, 53, 51, 60, 255, 53, 51, 60, 255, 53, 51, 60, 255, 53, 51, 60, 255, 53, 51, 60, 255, 53, 51, 60, 255, 53, 51, 60, 255, 53, 51, 60, 255, 53, 51, 60, 255, 53, 51, 60, 255, 53, 51, 60, 255, 53, 51, 60, 255, 53, 51, 60, 255, 53, 51, 60, 255, 53, 51, 60, 255, 53, 51, 60, 255, 53, 51, 60, 255, 53, 51, 60, 255, 53, 51, 60, 255, 53, 51, 60, 255, 53, 51, 60, 255, 53, 51, 60, 255, 53, 51, 60, 255, 53, 51, 60, 255, 53, 51, 60, 255, 53, 51, 60, 255, 53, 51, 60, 255, 53, 51, 60, 255, 53, 51, 60, 255, 53, 51, 60, 255, 53, 51, 60, 255, 53, 51, 60, 255, 53, 51, 60, 255, 53, 51, 60, 255, 53, 51, 60, 255, 53, 51, 60, 255, 53, 51, 60, 255, 53, 51, 60, 255, 53, 51, 60, 255, 53, 51, 60, 255, 53, 51, 60, 255, 53, 51, 60, 255, 53, 51, 60, 255, 53, 51, 60, 255, 53, 51, 60, 255, 53, 51, 60, 255, 53, 51, 60, 255, 53, 51, 60, 255, 53, 51, 60, 255, 53, 51, 60, 255, 53, 51, 60, 255, 53, 51, 60, 255, 53, 51, 60, 255, 53, 51, 60, 255, 53, 51, 60, 255, 53, 51, 60, 255, 53, 51, 60, 255, 53, 51, 60, 255, 53, 51, 60, 255, 53, 51, 60, 255, 53, 51, 60, 255, 53, 51, 60, 255, 53, 51, 60, 255, 53, 51, 60, 255, 53, 51, 60, 255, 53, 51, 60, 255, 53, 51, 60, 255, 53, 51, 60, 255, 53, 51, 60, 255, 53, 51, 60, 255, 53, 51, 60, 255, 53, 51, 60, 255, 53, 51, 60, 255, 53, 51, 60, 255, 53, 51, 60, 255, 53, 51, 60, 255, 53, 51, 60, 255, 53, 51, 60, 255, 53, 51, 60, 255, 53, 51, 60, 255, 53, 51, 60, 255, 53, 51, 60, 255),
"format": "RGBA8",
"height": 38,
"mipmaps": false,
"width": 22
}

[sub_resource type="ImageTexture" id="ImageTexture_32wu1"]
image = SubResource("Image_yrtuh")

[sub_resource type="StyleBoxTexture" id="StyleBoxTexture_ghest"]
texture = SubResource("ImageTexture_32wu1")
region_rect = Rect2(0, 0, 22, 38)

[sub_resource type="StyleBoxFlat" id="StyleBoxFlat_ysbly"]
bg_color = Color(0.0627451, 0.0627451, 0.0627451, 0.85098)
border_color = Color(0.0627451, 0.0627451, 0.0627451, 0.827451)
shadow_color = Color(0, 0, 0, 0)

[node name="Viewport" type="Control"]
process_mode = 3
layout_mode = 3
anchors_preset = 15
anchor_right = 1.0
anchor_bottom = 1.0

[node name="mobile" type="Control" parent="."]
layout_mode = 3
anchors_preset = 0
script = ExtResource("1_rhr80")

[node name="steering" type="Control" parent="mobile"]
layout_mode = 3
anchors_preset = 0

[node name="left" type="TouchScreenButton" parent="mobile/steering"]
position = Vector2(71.6236, 1026)
rotation = -1.5708
scale = Vector2(1.3, 1.3)
shape_centered = false

[node name="right" type="TouchScreenButton" parent="mobile/steering"]
position = Vector2(437.336, 860)
rotation = 1.5708
scale = Vector2(1.3, 1.3)
shape_centered = false

[node name="speed" type="Control" parent="mobile"]
visible = false
layout_mode = 3
anchors_preset = 0

[node name="gas" type="TouchScreenButton" parent="mobile/speed"]
position = Vector2(1680, 860)
scale = Vector2(1.3, 1.3)

[node name="brake" type="TouchScreenButton" parent="mobile/speed"]
position = Vector2(1480, 860)
scale = Vector2(1.3, 1.3)

[node name="settings" type="Control" parent="."]
layout_mode = 3
anchors_preset = 1
anchor_left = 1.0
anchor_right = 1.0

[node name="settings" type="TextureButton" parent="settings"]
anchors_preset = 1
anchor_left = 1.0
anchor_right = 1.0
offset_left = -128.0
offset_bottom = 128.0
texture_normal = ExtResource("5_0ninr")

[node name="UI" type="Control" parent="."]
layout_mode = 3
anchors_preset = 0

[node name="VBoxContainer" type="VBoxContainer" parent="UI"]

[node name="track1" type="Button" parent="UI/VBoxContainer"]
offset_right = 212.0
offset_bottom = 68.0
icon = ExtResource("5_3trmr")

[node name="Beach" type="Label" parent="UI/VBoxContainer/track1"]
offset_left = 5.0
offset_top = 6.0
offset_right = 203.0
offset_bottom = 69.0
theme_override_colors/font_color = Color(0.356863, 0, 0, 1)
theme_override_font_sizes/font_size = 60
text = "Beach"

[node name="track2" type="Button" parent="UI/VBoxContainer"]
offset_top = 72.0
offset_right = 212.0
offset_bottom = 140.0
icon = ExtResource("5_3trmr")

[node name="City" type="Label" parent="UI/VBoxContainer/track2"]
offset_left = 5.0
offset_top = 6.0
offset_right = 203.0
offset_bottom = 69.0
theme_override_colors/font_color = Color(0.356863, 0, 0, 1)
theme_override_font_sizes/font_size = 60
text = "City"

[node name="track3" type="Button" parent="UI/VBoxContainer"]
offset_top = 144.0
offset_right = 212.0
offset_bottom = 212.0
icon = ExtResource("5_3trmr")

[node name="Offroad" type="Label" parent="UI/VBoxContainer/track3"]
offset_left = 5.0
offset_top = 9.0
offset_right = 203.0
offset_bottom = 72.0
theme_override_colors/font_color = Color(0.356863, 0, 0, 1)
theme_override_font_sizes/font_size = 60
text = "Offroad"

[node name="track4" type="Button" parent="UI/VBoxContainer"]
offset_top = 216.0
offset_right = 212.0
offset_bottom = 284.0
icon = ExtResource("5_3trmr")

[node name="Roads" type="Label" parent="UI/VBoxContainer/track4"]
offset_left = 5.0
offset_top = 9.0
offset_right = 203.0
offset_bottom = 72.0
theme_override_colors/font_color = Color(0.356863, 0, 0, 1)
theme_override_font_sizes/font_size = 60
text = "Roads"

[node name="track5" type="Button" parent="UI/VBoxContainer"]
offset_top = 288.0
offset_right = 212.0
offset_bottom = 356.0
icon = ExtResource("5_3trmr")

[node name="Stones" type="Label" parent="UI/VBoxContainer/track5"]
offset_left = 5.0
offset_top = 7.0
offset_right = 203.0
offset_bottom = 70.0
theme_override_colors/font_color = Color(0.356863, 0, 0, 1)
theme_override_font_sizes/font_size = 60
text = "Stones"

[node name="play" type="Panel" parent="."]
self_modulate = Color(1, 1, 1, 0)
anchors_preset = 8
anchor_left = 0.5
anchor_top = 0.5
anchor_right = 0.5
anchor_bottom = 0.5
offset_left = -960.208
offset_top = -541.65
offset_right = 957.792
offset_bottom = 542.35
theme = ExtResource("8_x041i")

[node name="playbtn" type="TextureButton" parent="play"]
anchors_preset = 8
anchor_left = 0.5
anchor_top = 0.5
anchor_right = 0.5
anchor_bottom = 0.5
offset_left = -64.0
offset_top = -64.0
offset_right = 64.0
offset_bottom = 64.0
texture_normal = ExtResource("9_uia4w")

[node name="SettingsGUI" type="Control" parent="."]
visible = false
layout_mode = 3
anchors_preset = 0
script = ExtResource("5_5nks7")

[node name="Panel" type="Panel" parent="SettingsGUI"]
anchors_preset = 8
anchor_left = 0.5
anchor_top = 0.5
anchor_right = 0.5
anchor_bottom = 0.5
offset_left = 448.0
offset_top = 115.0
offset_right = 1472.0
offset_bottom = 915.0
theme = ExtResource("8_x041i")
theme_override_styles/panel = SubResource("StyleBoxFlat_747un")
script = ExtResource("6_m4clf")

[node name="WelcomeTitle" type="Label" parent="SettingsGUI/Panel"]
offset_top = 16.0
offset_right = 1024.0
offset_bottom = 74.0
theme_override_font_sizes/font_size = 36
text = "Solus Stunts"

[node name="WelcomeText" type="Label" parent="SettingsGUI/Panel"]
offset_left = 32.0
offset_top = 51.0
offset_right = 676.0
offset_bottom = 700.0
theme_override_font_sizes/font_size = 25
text = "
Please choose a preset suited to your hardware below:











Choose a display resolution:"

[node name="GraphicsQuality" type="HBoxContainer" parent="SettingsGUI/Panel"]
offset_left = 80.0
offset_top = 136.0
offset_right = 419.0
offset_bottom = 186.0

[node name="Label" type="Label" parent="SettingsGUI/Panel/GraphicsQuality"]
offset_top = 6.0
offset_right = 173.0
offset_bottom = 43.0
theme_override_font_sizes/font_size = 25
text = "Graphics quality"

[node name="graphics_preset" type="OptionButton" parent="SettingsGUI/Panel/GraphicsQuality"]
offset_left = 177.0
offset_right = 203.0
offset_bottom = 50.0

[node name="PopupMenu" type="PopupMenu" parent="SettingsGUI/Panel/GraphicsQuality/graphics_preset"]

[node name="PopupMenu2" type="PopupMenu" parent="SettingsGUI/Panel/GraphicsQuality/graphics_preset"]

[node name="MarginContainer" type="MarginContainer" parent="SettingsGUI/Panel/GraphicsQuality/graphics_preset/PopupMenu2"]
anchors_preset = 15
anchor_right = 1.0
anchor_bottom = 1.0

[node name="Timer" type="Timer" parent="SettingsGUI/Panel/GraphicsQuality/graphics_preset/PopupMenu2"]
wait_time = 0.3
one_shot = true

[node name="Timer2" type="Timer" parent="SettingsGUI/Panel/GraphicsQuality/graphics_preset/PopupMenu2"]
wait_time = 0.3
one_shot = true

[node name="GraphicsBlurb" type="RichTextLabel" parent="SettingsGUI/Panel"]
offset_left = 32.0
offset_top = 237.0
offset_right = 448.0
offset_bottom = 349.0
theme_override_font_sizes/normal_font_size = 25
theme_override_styles/focus = SubResource("StyleBoxFlat_abhys")
theme_override_styles/normal = SubResource("StyleBoxFlat_u12fm")
bbcode_enabled = true

[node name="VScrollBar" type="VScrollBar" parent="SettingsGUI/Panel/GraphicsBlurb"]
visible = false
anchors_preset = 15
anchor_right = 1.0
anchor_bottom = 1.0
max_value = 0.0
step = 1.0

[node name="VScrollBar2" type="VScrollBar" parent="SettingsGUI/Panel/GraphicsBlurb"]
visible = false
anchors_preset = 15
anchor_right = 1.0
anchor_bottom = 1.0
max_value = 0.0
step = 1.0

[node name="GraphicsInfo" type="RichTextLabel" parent="SettingsGUI/Panel"]
offset_left = 512.0
offset_top = 141.0
offset_right = 992.0
offset_bottom = 397.0
theme_override_styles/focus = SubResource("StyleBoxFlat_abhys")
theme_override_styles/normal = SubResource("StyleBoxFlat_u12fm")
bbcode_enabled = true

[node name="VScrollBar" type="VScrollBar" parent="SettingsGUI/Panel/GraphicsInfo"]
visible = false
anchors_preset = 15
anchor_right = 1.0
anchor_bottom = 1.0
max_value = 0.0
step = 1.0

[node name="VScrollBar2" type="VScrollBar" parent="SettingsGUI/Panel/GraphicsInfo"]
visible = false
anchors_preset = 15
anchor_right = 1.0
anchor_bottom = 1.0
max_value = 0.0
step = 1.0

[node name="DisplayResolution" type="HBoxContainer" parent="SettingsGUI/Panel"]
offset_left = 80.0
offset_top = 472.0
offset_right = 410.0
offset_bottom = 509.0
theme_override_constants/separation = 24

[node name="Label" type="Label" parent="SettingsGUI/Panel/DisplayResolution"]
offset_right = 190.0
offset_bottom = 37.0
theme_override_font_sizes/font_size = 25
text = "Display resolution"

[node name="display_resolution" type="OptionButton" parent="SettingsGUI/Panel/DisplayResolution"]
offset_left = 214.0
offset_right = 240.0
offset_bottom = 37.0

[node name="PopupMenu" type="PopupMenu" parent="SettingsGUI/Panel/DisplayResolution/display_resolution"]

[node name="PopupMenu2" type="PopupMenu" parent="SettingsGUI/Panel/DisplayResolution/display_resolution"]

[node name="MarginContainer" type="MarginContainer" parent="SettingsGUI/Panel/DisplayResolution/display_resolution/PopupMenu2"]
anchors_preset = 15
anchor_right = 1.0
anchor_bottom = 1.0

[node name="Timer" type="Timer" parent="SettingsGUI/Panel/DisplayResolution/display_resolution/PopupMenu2"]
wait_time = 0.3
one_shot = true

[node name="Timer2" type="Timer" parent="SettingsGUI/Panel/DisplayResolution/display_resolution/PopupMenu2"]
wait_time = 0.3
one_shot = true

[node name="Audio Volume" type="HBoxContainer" parent="SettingsGUI/Panel"]
offset_left = 539.0
offset_top = 410.0
offset_right = 869.0
offset_bottom = 447.0
theme_override_constants/separation = 25

[node name="Label" type="Label" parent="SettingsGUI/Panel/Audio Volume"]
offset_top = 6.0
offset_right = 151.0
offset_bottom = 43.0
theme_override_font_sizes/font_size = 25
text = "Audio Volume"

[node name="HSlider" type="HSlider" parent="SettingsGUI/Panel/Audio Volume"]
offset_left = 176.0
offset_right = 330.0
offset_bottom = 50.0
size_flags_horizontal = 3
size_flags_vertical = 1
theme = ExtResource("8_x041i")
value = 75.0
ticks_on_borders = true

[node name="Anaglyph" type="HBoxContainer" parent="SettingsGUI/Panel"]
offset_left = 539.0
offset_top = 480.0
offset_right = 869.0
offset_bottom = 517.0
theme_override_constants/separation = 24

[node name="Label" type="Label" parent="SettingsGUI/Panel/Anaglyph"]
offset_top = 6.0
offset_right = 136.0
offset_bottom = 43.0
theme_override_font_sizes/font_size = 25
text = "3D Anaglyph"

[node name="CheckButton" type="CheckButton" parent="SettingsGUI/Panel/Anaglyph"]
offset_left = 160.0
offset_right = 214.0
offset_bottom = 50.0

[node name="Effect" type="HSlider" parent="SettingsGUI/Panel/Anaglyph"]
offset_left = 238.0
offset_right = 330.0
offset_bottom = 50.0
size_flags_horizontal = 3
size_flags_vertical = 1
theme = ExtResource("8_x041i")
value = 75.0
ticks_on_borders = true

[node name="LastLaunch" type="HBoxContainer" parent="SettingsGUI/Panel"]
offset_left = 37.0
offset_top = 525.0
offset_right = 367.0
offset_bottom = 575.0
theme_override_constants/separation = 24

[node name="Label" type="Label" parent="SettingsGUI/Panel/LastLaunch"]
offset_top = 6.0
offset_right = 198.0
offset_bottom = 43.0
theme_override_font_sizes/font_size = 25
text = "Last Launch: never"

[node name="PlayerName" type="HBoxContainer" parent="SettingsGUI/Panel"]
offset_left = 37.0
offset_top = 594.0
offset_right = 367.0
offset_bottom = 644.0
theme_override_constants/separation = 24

[node name="Label" type="Label" parent="SettingsGUI/Panel/PlayerName"]
offset_top = 6.0
offset_right = 137.0
offset_bottom = 43.0
theme_override_font_sizes/font_size = 25
text = "Player Name"

[node name="LineEdit" type="LineEdit" parent="SettingsGUI/Panel/PlayerName"]
offset_left = 161.0
offset_right = 330.0
offset_bottom = 50.0
size_flags_horizontal = 3
caret_blink = true

[node name="Timer" type="Timer" parent="SettingsGUI/Panel/PlayerName/LineEdit"]
wait_time = 0.5

[node name="Timer2" type="Timer" parent="SettingsGUI/Panel/PlayerName/LineEdit"]
wait_time = 0.65

[node name="Driver" type="HBoxContainer" parent="SettingsGUI/Panel"]
offset_left = 37.0
offset_top = 662.0
offset_right = 367.0
offset_bottom = 712.0
theme_override_constants/separation = 24

[node name="Label" type="Label" parent="SettingsGUI/Panel/Driver"]
offset_top = 6.0
offset_right = 77.0
offset_bottom = 43.0
theme_override_font_sizes/font_size = 25
text = "Vulkan"

[node name="CheckButton" type="CheckButton" parent="SettingsGUI/Panel/Driver"]
offset_left = 101.0
offset_right = 155.0
offset_bottom = 50.0

[node name="ConfirmButton" type="Button" parent="SettingsGUI/Panel"]
offset_left = 416.0
offset_top = 722.0
offset_right = 608.0
offset_bottom = 775.0
text = "OK"

[node name="QuitButton" type="Button" parent="SettingsGUI/Panel"]
offset_left = 901.0
offset_top = 747.0
offset_right = 974.0
offset_bottom = 785.0
text = "Quit"

[node name="ReturnButton" type="Button" parent="SettingsGUI/Panel"]
offset_left = 806.0
offset_top = 747.0
offset_right = 879.0
offset_bottom = 785.0
text = "Return"

[node name="MenuTip" type="RichTextLabel" parent="SettingsGUI/Panel"]
offset_left = 29.0
offset_top = 734.0
offset_right = 349.0
offset_bottom = 790.0
theme_override_font_sizes/normal_font_size = 25
theme_override_styles/focus = SubResource("StyleBoxFlat_abhys")
theme_override_styles/normal = SubResource("StyleBoxFlat_u12fm")
bbcode_enabled = true
text = "Press [ESCAPE] to toggle this menu."

[node name="VScrollBar" type="VScrollBar" parent="SettingsGUI/Panel/MenuTip"]
visible = false
anchors_preset = 15
anchor_right = 1.0
anchor_bottom = 1.0
max_value = 52.0
step = 1.0
page = 52.0

[node name="VScrollBar2" type="VScrollBar" parent="SettingsGUI/Panel/MenuTip"]
visible = false
anchors_preset = 15
anchor_right = 1.0
anchor_bottom = 1.0
max_value = 0.0
step = 1.0

[node name="AudioStreamPlayer" type="AudioStreamPlayer" parent="."]
stream = ExtResource("7_ivrd2")
volume_db = -10.0
autoplay = true

[node name="connect" type="Panel" parent="."]
visible = false
anchors_preset = 1
anchor_left = 1.0
anchor_right = 1.0
offset_left = -592.0
offset_bottom = 430.0
theme = ExtResource("8_x041i")
theme_override_styles/panel = SubResource("StyleBoxFlat_txh84")

[node name="name_label" type="Label" parent="connect"]
offset_left = 54.0
offset_top = 46.0
offset_right = 254.0
offset_bottom = 96.0
size_flags_horizontal = 2
size_flags_vertical = 0
theme_override_font_sizes/font_size = 25
text = "Name:"

[node name="name" type="LineEdit" parent="connect"]
offset_left = 71.0
offset_top = 90.0
offset_right = 271.0
offset_bottom = 140.0
theme_override_font_sizes/font_size = 25
text = "HugeGameArt"
caret_blink = true

[node name="Timer" type="Timer" parent="connect/name"]
wait_time = 0.5

[node name="Timer2" type="Timer" parent="connect/name"]
wait_time = 0.65

[node name="ip_label" type="Label" parent="connect"]
offset_left = 55.0
offset_top = 193.0
offset_right = 255.0
offset_bottom = 243.0
size_flags_horizontal = 2
size_flags_vertical = 0
theme_override_font_sizes/font_size = 25
text = "IP:"

[node name="ip" type="LineEdit" parent="connect"]
offset_left = 71.0
offset_top = 249.0
offset_right = 271.0
offset_bottom = 299.0
theme_override_font_sizes/font_size = 25
text = "127.0.0.1"
caret_blink = true

[node name="Timer" type="Timer" parent="connect/ip"]
wait_time = 0.5

[node name="Timer2" type="Timer" parent="connect/ip"]
wait_time = 0.65

[node name="host" type="Button" parent="connect"]
offset_left = 341.0
offset_top = 81.0
offset_right = 541.0
offset_bottom = 131.0
size_flags_horizontal = 2
size_flags_vertical = 2
theme_override_font_sizes/font_size = 25
text = "Host"

[node name="join" type="Button" parent="connect"]
offset_left = 341.0
offset_top = 240.0
offset_right = 541.0
offset_bottom = 290.0
size_flags_horizontal = 2
size_flags_vertical = 2
theme_override_font_sizes/font_size = 25
text = "Join"

[node name="error_label" type="Label" parent="connect"]
anchors_preset = 1
anchor_left = 1.0
anchor_right = 1.0
offset_left = -557.0
offset_top = 321.0
offset_right = -27.0
offset_bottom = 416.0
theme_override_colors/font_color = Color(0.819608, 0.290196, 0.290196, 1)

[node name="error" type="AcceptDialog" parent="connect"]

[node name="Panel" type="Panel" parent="connect/error"]
theme_override_styles/panel = SubResource("StyleBoxTexture_4ubab")

[node name="Label" type="Label" parent="connect/error"]
anchors_preset = 15
anchor_right = 1.0
anchor_bottom = 1.0
offset_left = 8.0
offset_top = 8.0
offset_right = -8.0
offset_bottom = -42.0

[node name="HBoxContainer" type="HBoxContainer" parent="connect/error"]

[node name="Panel2" type="Panel" parent="connect/error"]
theme_override_styles/panel = SubResource("StyleBoxTexture_ghest")

[node name="Label2" type="Label" parent="connect/error"]
anchors_preset = 15
anchor_right = 1.0
anchor_bottom = 1.0
offset_left = 8.0
offset_top = 8.0
offset_right = -8.0
offset_bottom = -42.0

[node name="HBoxContainer2" type="HBoxContainer" parent="connect/error"]

[node name="players" type="Panel" parent="."]
visible = false
anchors_preset = 1
anchor_left = 1.0
anchor_right = 1.0
offset_left = -407.0
offset_bottom = 580.0
theme = ExtResource("8_x041i")
theme_override_styles/panel = SubResource("StyleBoxFlat_ysbly")

[node name="label" type="Label" parent="players"]
offset_left = 49.0
offset_top = 60.0
offset_right = 282.0
offset_bottom = 98.0
size_flags_horizontal = 2
size_flags_vertical = 0
theme_override_font_sizes/font_size = 30
text = "Awaiting Players..."

[node name="start" type="Button" parent="players"]
offset_left = 151.0
offset_top = 505.0
offset_right = 276.0
offset_bottom = 549.0
size_flags_horizontal = 2
size_flags_vertical = 2
theme_override_font_sizes/font_size = 36
text = "Start"

[node name="list" type="ItemList" parent="players"]
offset_left = 69.0
offset_top = 101.0
offset_right = 229.0
offset_bottom = 316.0
size_flags_horizontal = 2
size_flags_vertical = 2
theme = ExtResource("15_0f5jq")
auto_height = true

[node name="VScrollBar" type="VScrollBar" parent="players/list"]
offset_left = 191.0
offset_top = 152.0
offset_right = 203.0
offset_bottom = 164.0

[connection signal="pressed" from="mobile/steering/left" to="mobile" method="_on_left_pressed"]
[connection signal="pressed" from="mobile/steering/right" to="mobile" method="_on_right_pressed"]
