[gd_scene load_steps=2 format=3 uid="uid://h7nwbgvcqm0g"]

[ext_resource type="Script" path="res://addons/settings_manager/settings_manager.gd" id="1"]

[node name="SettingsManager" type="Node"]
script = ExtResource("1")

[node name="SaveTimer" type="Timer" parent="."]
wait_time = 5.0
one_shot = true

[connection signal="timeout" from="SaveTimer" to="." method="save"]
